[
    {
        "created": "20220515040514261",
        "creator": "fukrobin",
        "tags": "Project",
        "modified": "20220529102909216",
        "modifier": "fukrobin",
        "title": "Voxel-Engine",
        "type": "text/vnd.tiddlywiki",
        "description": "A based-on voxel game engine build with TDD ",
        "category": "voxel",
        "list": "[[Application run in extra Thread]] [[Add Input Event process]] [[Application deal with command args]] [[show a simple window]] [[Wrapper GLFW & OpenGL for TDD]]"
    }
]